{
    "type": "postgres",
    "host": "localhost",
    "port": 5432,
    "username": "rila",
    "password": "password",
    "database": "riltransport",
    "entities": [
        "src/**/**.entity{.ts,.js}"
    ],
    "synchronize": true
}